{
  "label": "Assessment",
  "seq": 500,
  "submenu": [
    {
      "label": "Already Taken Assessments",
      "state": "app.home",
      "p": "TAKE_TEST",
      "seq": 100
    },
    {
      "label": "Available Assessments",
      "state": "app.availabletests",
      "p": "TAKE_TEST",
      "seq": 200
    }
  ]
}